<svg width="64" height="64" viewBox="0 0 64 64" fill="none" xmlns="http://www.w3.org/2000/svg">
<rect width="64" height="64" rx="16" fill="#FFD63F"/>
<path fill-rule="evenodd" clip-rule="evenodd" d="M48.9333 27.7823V42.8332C48.9333 45.926 46.426 48.4332 43.3333 48.4332H20.9333C17.8405 48.4332 15.3333 45.926 15.3333 42.8332V27.7823C15.3333 27.0011 15.7164 26.2696 16.3587 25.8226L20.4484 22.9764C20.8111 22.7241 21.3097 22.8135 21.562 23.1761C21.8144 23.5388 21.725 24.0373 21.3624 24.2897L17.2727 27.1358C17.0631 27.2817 16.9374 27.5177 16.9334 27.7699C17.1835 27.6815 17.4528 27.6334 17.7333 27.6334C18.1613 27.6334 18.5815 27.7478 18.9503 27.9649L32.1333 35.7216L45.3162 27.9649C45.9515 27.5911 46.6885 27.543 47.3332 27.7706C47.3294 27.518 47.2036 27.2819 46.9938 27.1358L43.0212 24.3712C42.6586 24.1188 42.5692 23.6202 42.8215 23.2576C43.0739 22.8949 43.5725 22.8055 43.9352 23.0579L47.9078 25.8226C48.5501 26.2696 48.9333 27.0011 48.9333 27.7823Z" fill="#2B2B2B"/>
<path fill-rule="evenodd" clip-rule="evenodd" d="M20.3333 27.333V19.333C20.3333 17.1239 22.1241 15.333 24.3333 15.333H40.3333C42.5424 15.333 44.3333 17.1239 44.3333 19.333V27.333L32.3333 34.533L20.3333 27.333ZM27.5333 23.333H37.1333C37.5751 23.333 37.9333 22.9748 37.9333 22.533C37.9333 22.0912 37.5751 21.733 37.1333 21.733H27.5333C27.0914 21.733 26.7333 22.0912 26.7333 22.533C26.7333 22.9748 27.0914 23.333 27.5333 23.333ZM37.9333 27.333C37.9333 27.7748 37.5751 28.133 37.1333 28.133H27.5333C27.0914 28.133 26.7333 27.7748 26.7333 27.333C26.7333 26.8912 27.0914 26.533 27.5333 26.533H37.1333C37.5751 26.533 37.9333 26.8912 37.9333 27.333Z" fill="white"/>
</svg>
