<svg width="20" height="20" viewBox="0 0 20 20" fill="none" xmlns="http://www.w3.org/2000/svg">
<circle cx="10" cy="10" r="9.5" stroke="#2B2B2B" stroke-dasharray="2 2"/>
<circle r="5.33333" transform="matrix(1 0 0 -1 9.99984 9.99967)" fill="#FFD63F" stroke="#2B2B2B"/>
</svg>
