<?xml version="1.0" encoding="utf-8"?>
<!-- Generator: Adobe Illustrator 24.0.1, SVG Export Plug-In . SVG Version: 6.00 Build 0)  -->
<svg version="1.1" id="Layer_1" xmlns="http://www.w3.org/2000/svg" xmlns:xlink="http://www.w3.org/1999/xlink" x="0px" y="0px"
	 viewBox="0 0 80 80" style="enable-background:new 0 0 80 80;" xml:space="preserve">
<style type="text/css">
	.st0{fill-rule:evenodd;clip-rule:evenodd;fill:#FFD540;}
</style>
<g>
	<path class="st0" d="M20.6,78.6c-3.3-0.9-4.2-3.6-4.8-6.5c-0.6-3.3-0.6-6.6-0.4-9.9c0.6-9.9,2.5-19.5,4.7-29.1
		c0.3-1.3,0.1-2.6,0.2-3.9c0-1.9,0.1-2,1.9-2.1c0.1,0,0.1,0,0.3-0.1c0-0.3,0-0.5,0-0.8c0-3.5,0-7.1,0-10.6c0-0.4,0.1-0.9,0.3-1.3
		c0.8-1.9,1.6-3.9,2.3-5.8c0.2-0.7,0.4-1.4,0.4-2.1c0.1-0.9,0-1.8,0-2.8c0-0.7,0.2-1.2,0.8-1.6c1,0,2,0,3,0c0.5,0.3,0.9,0.7,0.7,1.4
		c-0.3,1.1-1.4,0.8-2.2,0.9c0,0.7,0,1.5,0,2.2c3.5,0,7,0,10.6,0c0-0.7,0-1.4,0-2.2c-1.3,0-2.6,0-3.9,0c-0.6,0-1.2-0.1-1.4-0.8
		c-0.2-0.7,0.2-1.1,0.7-1.5c2.1,0,4.2,0,6.3,0c0.5,0.4,0.7,0.9,0.6,1.6c-0.3,2.7,0.3,5.2,1.5,7.5c0.3,0.6,0.5,1.3,0.8,2
		c0.2,0.5,0.4,1.1,0.7,1.7c0.9-0.3,1.8-0.6,2.7-0.8c1.1-0.3,1.7-1,1.9-2.1c0.6-2.8,1.1-5.7,1.8-8.5c0.1-0.5,0.5-0.8,0.8-1.3
		c0.3,0,0.6,0,0.9,0c1.6,0.3,3.1,0.7,4.7,1c0.2,0,0.4,0.1,0.7,0.1c1,0.2,1.3,0.6,1.1,1.6c-0.6,2.9-1.1,5.7-1.7,8.5
		c-0.3,1.2,0.1,2.1,1,2.9c0.6,0.5,1.2,1,1.8,1.5c1.6,1.3,2.2,3.1,1.8,5.1c-0.3,1.3-0.5,2.7-0.8,4.1c0.4,0,0.7,0,1,0
		c0.8,0,1.3,0.5,1.2,1.2c-0.4,4.4,1.1,8.5,1.9,12.8c1.5,8.1,3,16.2,3.1,24.5c0,2.6-0.1,5.2-0.8,7.7c0,0.1-0.1,0.3-0.1,0.4
		c-0.7,2.3-1.9,4.2-4.4,4.8c-10.8,0-21.6,0-32.4,0c-0.5-0.4-0.9-0.8-0.6-1.5c0.3-0.7,0.8-0.7,1.5-0.7c10,0,20,0,30,0
		c1.9,0,2.8-0.5,3.5-2.4c0.8-2,1-4.1,1-6.1c0.2-4.3-0.2-8.6-0.8-12.9c-0.9-6.8-2.1-13.4-3.7-20.1c-0.2-0.7-0.4-1-1.1-1
		c-12.1,0-24.2,0-36.3,0c-0.7,0-1,0.2-1.1,0.9c-1.6,7.1-3,14.2-3.8,21.3c-0.5,4.6-1,9.2-0.5,13.8c0.2,1.6,0.6,3.1,1.2,4.6
		c0.5,1.3,1.5,2,3,1.9c0.8-0.1,1.7,0,2.5,0c0.6,0,1.2,0.1,1.5,0.8c0.2,0.7-0.2,1.1-0.7,1.5C23.6,78.6,22.1,78.6,20.6,78.6z
		 M22.5,31.5c12.6,0,25.1,0,37.6,0c0-0.7,0-1.4,0-2.2c-0.3,0-0.6,0-0.9,0c-7.4,0-14.9,0-22.3,0c-0.9,0-1.4-0.4-1.4-1.1
		c0-0.7,0.5-1.1,1.4-1.1c0.6,0,1.2,0,1.8,0c0.4-2.1,0.8-4.2,1.3-6.3c-3.6,0-7.1,0-10.6,0c0,2.1,0,4.2,0,6.3c0.4,0,0.7,0,1.1,0
		c0.3,0,0.7,0,1,0c0.9,0.1,1.4,0.9,1.1,1.6c-0.3,0.5-0.7,0.6-1.3,0.6c-2.6,0-5.2,0-7.8,0c-0.3,0-0.5,0-0.8,0
		C22.5,30.1,22.5,30.8,22.5,31.5z M40.9,27.1c0.6,0,1.1,0,1.6,0c0.6,0.1,0.9-0.1,1-0.8c0.4-1.9,0.8-3.8,1.2-5.8
		c0.3-1.4,0.7-1.7,2.1-1.4c2.6,0.5,5.2,1.1,7.7,1.6c1.5,0.3,1.7,0.6,1.4,2.1c-0.3,1.4-0.5,2.8-0.8,4.2c1,0,1.8,0,2.7,0
		c0.3-1.6,0.6-3.2,0.9-4.8c0.2-1-0.1-1.9-0.9-2.5c-0.7-0.6-1.4-1.1-2.1-1.7c-1.5-1.3-2.1-2.9-1.7-4.8c0.2-1.1,0.4-2.3,0.7-3.5
		c-1.3-0.3-2.4-0.5-3.7-0.7c-0.2,1.2-0.5,2.3-0.7,3.4c-0.4,1.9-1.5,3.2-3.4,3.8c-0.9,0.3-1.9,0.6-2.8,0.9c-0.9,0.3-1.5,0.9-1.7,1.8
		C42,21.5,41.5,24.2,40.9,27.1z M40.8,14c-0.7-1.7-1.3-3.3-2-4.9c0-0.1-0.3-0.2-0.5-0.2c-3.5,0-7,0-10.5,0c-0.2,0-0.5,0.1-0.5,0.3
		c-0.7,1.6-1.3,3.2-2,4.9C30.5,14,35.6,14,40.8,14z M26.8,27c0-0.1,0.1-0.2,0.1-0.2c0-2.2,0-4.4,0-6.6c0-1.5,0.2-1.8,1.8-1.8
		c3.7,0,7.3,0,11,0c0.2,0,0.6-0.1,0.7-0.3c0.3-0.6,0.6-1.2,0.9-1.9c-5.5,0-11,0-16.5,0c0,3.6,0,7.1,0,10.7C25.5,27,26.1,27,26.8,27z
		 M53.7,22.9c-2.3-0.5-4.5-0.9-6.9-1.4c-0.4,1.9-0.8,3.7-1.2,5.6c2.3,0,4.6,0,6.8,0c0.2,0,0.5-0.3,0.5-0.4
		C53.2,25.4,53.4,24.2,53.7,22.9z M51.5,6.8C52.8,7,54,7.3,55.2,7.5c0.2-0.8,0.3-1.5,0.4-2.2C54.4,5,53.2,4.8,52,4.6
		C51.8,5.3,51.7,6,51.5,6.8z"/>
	<path class="st0" d="M27.1,41.5c-0.4,0-0.8,0-1.1,0c-0.7,0-1.1-0.5-1.1-1.1c0-0.6,0.4-1.1,1-1.1c0,0,0.1,0,0.1,0c2.9,0,5.8,0,8.7,0
		c0.8,0,1.4,0.6,1.2,1.3c-0.1,0.5-0.5,0.9-1.1,0.9c-0.3,0-0.7,0-1.1,0c0,0.2-0.1,0.3-0.1,0.4c0,2.7,0,5.4,0,8.1
		c0.1,3.9,3.4,7,7.4,7.1c3.9,0,7.3-3,7.4-6.9c0.1-2.8,0-5.5,0-8.3c0-0.1,0-0.2-0.1-0.4c-0.4,0-0.7,0-1.1,0c-0.6,0-1-0.4-1.1-1
		c0-0.6,0.3-1,0.9-1.2c0.1,0,0.2,0,0.4,0c2.8,0,5.7,0,8.5,0c0.6,0,1.1,0.2,1.3,0.8c0.2,0.7-0.2,1.4-1,1.4c-0.4,0-0.7,0-1.2,0
		c0,0.4,0,0.7,0,1c0,2.6,0,5.3,0,7.9c0,1.9-0.6,3.7-1.4,5.5c-0.4,0.8-1,1.1-1.6,0.8c-0.6-0.3-0.8-0.9-0.4-1.7
		c0.8-1.6,1.2-3.3,1.2-5.1c0-2.6,0-5.1,0-7.7c0-0.1,0-0.3,0-0.5c-0.7,0-1.4,0-2.2,0c0,0.3,0,0.6,0,0.9c0,2.5,0,4.9,0,7.4
		c-0.1,4.7-3.3,8.5-8,9.4c-5.6,1.1-11.2-3.3-11.3-9c-0.1-2.6,0-5.2,0-7.8c0-0.3,0-0.5,0-0.8c-0.8,0-1.5,0-2.2,0c0,0.2,0,0.4,0,0.5
		c0,2.6-0.1,5.2,0,7.8c0.2,4.9,2.5,8.5,6.9,10.5c4.4,2.1,8.6,1.4,12.5-1.5c0.9-0.7,1.5-0.8,2-0.2c0.5,0.6,0.3,1.2-0.6,1.9
		c-4.3,3.3-9,4.1-14,2.1c-5-2-8-5.8-8.8-11.1c-0.3-2.1-0.1-4.3-0.2-6.5C27.1,44.1,27.1,42.9,27.1,41.5z"/>
</g>
</svg>
